<?xml version="1.0" encoding="utf-8"?>
<!-- Generator: Adobe Illustrator 16.0.4, SVG Export Plug-In . SVG Version: 6.00 Build 0)  -->
<!DOCTYPE svg PUBLIC "-//W3C//DTD SVG 1.1//EN" "http://www.w3.org/Graphics/SVG/1.1/DTD/svg11.dtd">
<svg version="1.1" id="Layer_1" xmlns="http://www.w3.org/2000/svg" xmlns:xlink="http://www.w3.org/1999/xlink" x="0px" y="0px"
	 width="612.453px" height="79.334px" viewBox="-0.453 5.666 612.453 79.334" enable-background="new -0.453 5.666 612.453 79.334"
	 xml:space="preserve">
<g>
	<path d="M40.573,10.88c0,0-0.227,0.68-3.626,10.2c-9.52-7.933-25.84-7.253-25.84,4.987c0,14.28,34,12.467,32.867,38.307
		c-0.907,20.4-25.387,25.16-44.427,15.188c1.586-3.627,3.4-7.025,4.533-9.975c14.28,8.841,26.747,4.762,28.56-2.268
		C38.307,48.053-0.227,53.946-0.227,26.746C-0.227,15.187,12.693-2.494,40.573,10.88z"/>
	<path d="M79.787,7.707h47.374c0,0-0.227,4.08,0,9.974c-5.213,0-35.36,0-35.36,0V38.08h25.16c0,4.08,0,7.253,0,9.293
		c-4.307,0-25.16,0-25.16,0v25.612h35.36c0,2.041,0,7.935,0,9.748c-7.027,0-47.374,0-47.374,0V7.707z"/>
	<path d="M187.681,44.426c-2.947,0-4.987,0-7.707,0c0-14.053,0-27.2,0-27.2s3.4,0,6.573,0c3.173,0,21.08-1.359,21.76,12.693
		C208.76,43.746,194.707,44.426,187.681,44.426z M188.359,7.707c-4.08,0-12.92-0.228-20.4-0.228v75.254h11.787c0,0,0-14.28,0-28.562
		c2.947,0,9.067-0.227,14.054-0.453c6.8-0.227,24.707-3.627,24.707-24.026C218.28,6.573,192.44,7.933,188.359,7.707z"/>
	<path d="M478.493,42.386c-2.72,0-4.532,0-7.253,0c0-13.146,0-25.387,0-25.387s3.173,0,6.12,0c2.945,0,18.358-0.907,19.72,11.333
		C498.667,42.84,481.667,42.386,478.493,42.386z M503.88,82.733h14.279l-23.8-33.773c6.347-2.268,13.825-7.707,12.92-20.174
		C505.693,6.573,483.934,8.16,479.174,7.933c-3.854-0.227-12.468-0.227-19.722-0.227v75.027h11.787c0,0,0-16.773,0-31.733
		c3.854,0,5.213,0,11.333-0.228L503.88,82.733z"/>
	<polygon points="301.693,37.626 301.693,8.16 313.254,8.16 313.254,82.96 301.693,82.96 301.693,47.373 263.161,47.373 
		263.161,82.96 251.601,82.96 251.601,8.16 263.161,8.16 263.161,37.626 	"/>
	<path d="M386.24,5.666c-24.025,0-39.667,17.681-39.667,39.667c0,21.986,15.642,39.667,39.44,39.667
		c24.025,0,39.438-17.681,39.438-39.667C425.68,23.347,410.04,5.666,386.24,5.666z M565.986,56.894l24.479-0.228L577.999,19.72
		h-0.226L565.986,56.894z M571.427,7.933h13.601L612,83.187h-12.014c0,0-2.721-7.707-6.119-17.681l-30.374,0.228
		c0,0-1.133,3.854-4.76,17.453h-11.561L571.427,7.933z"/>
	<g id="XMLID_1_">
		<g>
			<path fill="#FFFFFF" d="M413.667,45.337c0,15.86-9.75,28.78-27.431,28.78c-17.45,0-27.42-12.92-27.42-28.78
				c0-15.87,9.97-28.79,27.42-28.79C403.696,16.547,413.667,29.467,413.667,45.337z"/>
		</g>
		<g>
		</g>
	</g>
</g>
</svg>
